\relax 
\@writefile{toc}{\contentsline {chapter}{\numberline {1}Agile-Scrum}{13}}
\@writefile{lof}{\addvspace {10\p@ }}
\@writefile{lot}{\addvspace {10\p@ }}
\@writefile{toc}{\contentsline {section}{\numberline {1.1}Scrum}{16}}
\@writefile{toc}{\contentsline {subsection}{\numberline {1.1.1}Roles}{16}}
\@writefile{toc}{\contentsline {subsection}{\numberline {1.1.2}Workflow}{18}}
\@writefile{toc}{\contentsline {subsection}{\numberline {1.1.3}Artifacts}{21}}
\@writefile{toc}{\contentsline {subsection}{\numberline {1.1.4}Definitions}{23}}
\@setckpt{agile}{
\setcounter{page}{24}
\setcounter{equation}{0}
\setcounter{enumi}{12}
\setcounter{enumii}{0}
\setcounter{enumiii}{0}
\setcounter{enumiv}{0}
\setcounter{footnote}{0}
\setcounter{mpfootnote}{0}
\setcounter{part}{0}
\setcounter{chapter}{1}
\setcounter{section}{1}
\setcounter{subsection}{4}
\setcounter{subsubsection}{0}
\setcounter{paragraph}{0}
\setcounter{subparagraph}{0}
\setcounter{figure}{0}
\setcounter{table}{0}
\setcounter{savepage}{3}
}
