\relax 
\@writefile{toc}{\contentsline {chapter}{\numberline {4}Cost Estimation Techniques in Agile Projects}{31}}
\@writefile{lof}{\addvspace {10\p@ }}
\@writefile{lot}{\addvspace {10\p@ }}
\@writefile{toc}{\contentsline {section}{\numberline {4.1}Cost Estimation Methods}{31}}
\@writefile{toc}{\contentsline {section}{\numberline {4.2}Failure of Traditional Methods}{31}}
\@writefile{toc}{\contentsline {section}{\numberline {4.3}Methods Focused on Agile}{31}}
\@setckpt{cost_estimation_agile}{
\setcounter{page}{32}
\setcounter{equation}{0}
\setcounter{enumi}{5}
\setcounter{enumii}{0}
\setcounter{enumiii}{0}
\setcounter{enumiv}{0}
\setcounter{footnote}{0}
\setcounter{mpfootnote}{0}
\setcounter{part}{0}
\setcounter{chapter}{4}
\setcounter{section}{3}
\setcounter{subsection}{0}
\setcounter{subsubsection}{0}
\setcounter{paragraph}{0}
\setcounter{subparagraph}{0}
\setcounter{figure}{0}
\setcounter{table}{0}
\setcounter{savepage}{3}
}
