\relax 
\@input{cover.aux}
\@input{contents.aux}
\@input{agile.aux}
\@input{simulation.aux}
\@input{cost_estimation.aux}
\@input{cost_estimation_agile.aux}
\@input{our_method.aux}
\@input{appa.aux}
\@input{appb.aux}
\@input{biblio.aux}
