\relax 
\citation{patterson:risc}
\citation{rad83}
\citation{ellis:bulldog}
\citation{pet87}
\citation{coutant:precision-compilers}
\citation{gib86}
\@writefile{toc}{\contentsline {chapter}{\numberline {5}Our Method}{33}}
\@writefile{lof}{\addvspace {10\p@ }}
\@writefile{lot}{\addvspace {10\p@ }}
\@writefile{toc}{\contentsline {section}{\numberline {5.1}Backlog to Components}{33}}
\@writefile{toc}{\contentsline {section}{\numberline {5.2}Simulation Attributes}{34}}
\newlabel{ch1:opts}{{5.2}{34}}
\citation{thornton:cdc6600}
\@writefile{toc}{\contentsline {subsection}{\numberline {5.2.1}Post Multiply Normalization}{35}}
\@writefile{toc}{\contentsline {subsection}{\numberline {5.2.2}Block Exponent}{35}}
\@writefile{toc}{\contentsline {section}{\numberline {5.3}Integer optimizations}{36}}
\@writefile{toc}{\contentsline {subsection}{\numberline {5.3.1}Conversion to fixed point}{36}}
\@writefile{toc}{\contentsline {subsection}{\numberline {5.3.2}Small Constant Multiplications}{37}}
\citation{magenheimer:precision}
\citation{byte:i860}
\citation{ellis:bulldog}
\citation{colwell:vliw}
\@writefile{toc}{\contentsline {section}{\numberline {5.4}Other optimizations}{38}}
\@writefile{toc}{\contentsline {subsection}{\numberline {5.4.1}Low-level parallelism}{38}}
\citation{gib86}
\@writefile{toc}{\contentsline {subsection}{\numberline {5.4.2}Pipeline optimizations}{39}}
\@setckpt{our_method}{
\setcounter{page}{40}
\setcounter{equation}{0}
\setcounter{enumi}{6}
\setcounter{enumii}{0}
\setcounter{enumiii}{0}
\setcounter{enumiv}{0}
\setcounter{footnote}{6}
\setcounter{mpfootnote}{0}
\setcounter{part}{0}
\setcounter{chapter}{5}
\setcounter{section}{4}
\setcounter{subsection}{2}
\setcounter{subsubsection}{0}
\setcounter{paragraph}{0}
\setcounter{subparagraph}{0}
\setcounter{figure}{0}
\setcounter{table}{0}
\setcounter{savepage}{3}
}
